Two Flavors of Parallel Simulation
…
sleep_df_copy = data.frame(sapply(sleep_df, rep.int, times = n_simulations))

temporary_residuals = c()
for(i in 1:n_simulations){
    temporary_residuals = c(temporary_residuals, rnorm(nrow(sleep_df), mean = 0, sd = standard_deviation))
}
sleep_df_copy$iteration = rep(1:n_simulations, each = nrow(sleep_df))

sleep_df_copy$Simulated_Reaction = temporary_residuals + rep(model_predictions, n_simulations)

At this point each study has 54 observations (18 participants with 3 data points each). We created 100 replications of the study, so our total dataset size is now 5400 rows. Each 54 observation “group” is identified by the iteration field. This means that each core should receive approximately 14 iterations (100⁄7) with 54 observations per iteration, for a total of around 756 observations. The data structure that holds the data partitions is called a party_df for partitioned data frame..or maybe because all of the cores can join the party..I’m not sure, honestly. Let’s create one and examine the distribution of our observations.

partitioned_experiment <- multidplyr::partition(sleep_df_copy, iteration)

##Source: party_df [5,400 x 6]
##Groups: iteration
##Shards: 7 [756--810 rows]

### S3: party_df
##   Reaction  Days Subject iteration  residuals Simulated_Reaction
##      <dbl> <dbl>   <dbl>     <int>      <dbl>              <dbl>
##1  249.5600     0       1         2  1.9977383           251.5577
##2  258.7047     1       1         2  6.4680182           265.1727
##3  250.8006     2       1         2  3.7092064           254.5098
##4  222.7339     0       2         2  0.5424556           223.2764
##5  205.2658     1       2         2 10.3575587           215.6234
##6  202.9778     2       2         2  9.4995648           212.4774
##7  199.0539     0       3         2  9.0741097           208.1280
##8  194.3322     1       3         2 -0.4365952           193.8956
##9  234.3200     2       3         2  7.7861938           242.1062
##10 321.5426     0       4         2 -5.5537177           315.9889
### ... with 5,390 more rows
…
